…
mean_steps <- activity %>% group_by(date) %>% summarize(mean_steps=mean(steps,na.rm=TRUE))



median_steps <- activity %>% group_by(date) %>% summarize(median_steps=median(steps,na.rm=TRUE))

print(mean_steps)
```

```
## # A tibble: 61 x 2
##    date       mean_steps
##    <date>          <dbl>
##  1 2012-10-01    NaN    
##  2 2012-10-02      0.438
##  3 2012-10-03     39.4  
##  4 2012-10-04     42.1  
##  5 2012-10-05     46.2  
##  6 2012-10-06     53.5  
##  7 2012-10-07     38.2  
##  8 2012-10-08    NaN    
##  9 2012-10-09     44.5  
## 10 2012-10-10     34.4  
## # ... with 51 more rows
```
…
```r
print(median_steps)
```

```
## # A tibble: 61 x 2
##    date       median_steps
##    <date>            <dbl>
##  1 2012-10-01           NA
##  2 2012-10-02            0
##  3 2012-10-03            0
##  4 2012-10-04            0
##  5 2012-10-05            0
##  6 2012-10-06            0
##  7 2012-10-07            0
##  8 2012-10-08           NA
##  9 2012-10-09            0
## 10 2012-10-10            0
## # ... with 51 more rows
```
…
```r
filled<- activity %>% group_by(interval) %>% mutate(steps=ifelse(is.na(steps),mean(steps,na.rm = TRUE),steps))

total_steps_filled <-filled  %>% group_by(date) %>% summarize(total_steps=sum(steps,na.rm=TRUE))

mean_day_filled <- filled  %>% group_by(date) %>% summarize(mean_steps=mean(steps,na.rm=TRUE))
median_day_fileld <- filled  %>% group_by(date) %>% summarize(median_steps=median(steps,na.rm=TRUE))

print(mean_day_filled)
```

```
## # A tibble: 61 x 2
##    date       mean_steps
##    <date>          <dbl>
##  1 2012-10-01     37.4  
##  2 2012-10-02      0.438
##  3 2012-10-03     39.4  
##  4 2012-10-04     42.1  
##  5 2012-10-05     46.2  
##  6 2012-10-06     53.5  
##  7 2012-10-07     38.2  
##  8 2012-10-08     37.4  
##  9 2012-10-09     44.5  
## 10 2012-10-10     34.4  
## # ... with 51 more rows
```

```r
print(median_day_fileld)
```

```
## # A tibble: 61 x 2
##    date       median_steps
##    <date>            <dbl>
##  1 2012-10-01         34.1
##  2 2012-10-02          0  
##  3 2012-10-03          0  
##  4 2012-10-04          0  
##  5 2012-10-05          0  
##  6 2012-10-06          0  
##  7 2012-10-07          0  
##  8 2012-10-08         34.1
##  9 2012-10-09          0  
## 10 2012-10-10          0  
## # ... with 51 more rows
```
…
